<?xml version="1.0" encoding="UTF-8"?>
<session version="1.0">
<refactoring comment="Delete resource &apos;Hello_World&apos;" deleteContents="false" description="Delete resource &apos;Hello_World&apos;" element1="/Hello_World" flags="7" id="org.eclipse.ltk.core.refactoring.delete.resources" resources="1" stamp="1554483880470"/>
</session>