﻿FIRST NAME,LAST NAME,email address
Donald,Lloyd-Jones,dlj@northwestern.edu
David,Goff,david.goff@nih.gov
Donald,Lloyd-Jones,dlj@northwestern.edu
David,Goff,david.goff@nih.gov
Donald,Lloyd-Jones,dlj@northwestern.edu
David,Goff,david.goff@nih.gov
David,Goff,david.goff@nih.gov
Donald,Lloyd-Jones,dlj@northwestern.edu
Amit,Khera,amit.khera@utsouthwestern.edu
Erin,Michos,edonnell@jhmi.edu
Marco,Roffi,marco.roffi@hcuge.ch
Eric,Bates,ebates@umich.edu
Anita,Deswal,adeswal@bcm.edu
Jason,Katz,katzj@med.unc.edu
Daniel,Sims,dsims@montefiore.org
Kathryn,Rexrode,krexrode@bwh.harvard.edu
Laxmi,Mehta,laxmi.mehta@osumc.edu
Hani,Jneid,jneid@bcm.edu
Patrick,O'Gara,pogara@partners.org
James,de Lemos,james.delemos@utsouthwestern.edu
Andrew,DeFilippis,apdefi01@louisville.edu
Daniel,Forman,formand@pitt.edu
Abdulla,Damluji,Abdulla.Damluji@jhu.edu
Sohah,Iqbal,Sohah.Iqbal@nyumc.org
Igor,Palacios,palacios.igor@mgh.harvard.edu
Santiago,Garcia,garci205@umn.edu
Daniel,Burkhoff,danielburkhoff@gmail.com
Navin,Kapur,nkapur@tuftsmedicalcenter.org
Elliott,Antman,eantman@rics.bwh.harvard.edu
James,de Lemos,james.delemos@utsouthwestern.edu
Carolina,Masri,CMasri@cardiology.washington.edu
Graham,Wong,gcwong@mail.ubc.ca
Anke,Smits,a.m.smits@lumc.nl
Katey,Rayner,krayner@ottawaheart.ca
Nigel,Mackman,nigel_mackman@med.unc.edu
Daniel,Rader,rader@mail.med.upenn.edu
Josh,Knowles,knowlej@stanford.edu
Eugene,Chen,echenum@umich.edu
Sarah,de Ferranti,sarah.deferranti@cardio.chboston.org
Neal,Weintraub,nweintraub@augusta.edu
Catherine,Martel,catherine.martel@icm-mhi.org
Marlys,Koschinsky,mlk@robarts.ca
Henry,Ginsberg,hng1@cumc.columbia.edu
Jane,Leopold,jleopold@partners.org
Gordana,Vunjak-Novakovic,gv2131@columbia.edu
Jalees,Rehman,jalees@uic.edu
Michelle,Olive,olivem@nhlbi.nih.gov
Zhen,Chen,zhenchen@coh.org
Sanjana,Dayal,sanjana-dayal@uiowa.edu
Randal,Westrick,rjwestrick@oakland.edu
Alok,Khorana,khorana@ccf.org
Agnes,Lee,alee14@bccancer.bc.ca
Alisa,Wolberg,alisa_wolberg@med.unc.edu
Gregory,Piazza,gpiazza@partners.org
Hanjoong,Jo,hjo@emory.edu
Craig,Simmons,c.simmons@utoronto.ca
Yabing,Chen,yabingchen@uabmc.edu
Toren,Finkel,finkelt@pitt.edu
David,Rhainds,david.rhainds@icm-mhi.org
Kerry-Anne,Rye,karye@ozemail.com.au
Thomas,Vallim,tvallim@mednet.ucla.edu
Alicia,Lyle,alicia.lyle@emory.edu
Jacob,Haus,jmhaus@umich.edu
Erin,Howden,erin.howden@baker.edu.au
Yuji,Shiba,yshiba@shinshu-u.ac.jp
Raj,Kishore,raj.kishore@temple.edu
Alessandro,Cannavo,alessandro.cannavo@temple.edu
Julie,McMullen,julie.mcmullen@bakeridi.edu.au
Daniel,Bernstein,danb@stanford.edu
Kristin,Stanford,kristin.stanford@osumc.edu
Jonathan,Newman,jonathan.newman@nyumc.org
Neha,Pagidipati,neha.pagidipati@duke.edu
Jun,Ma,maj2015@uic.edu
David,Katz,david.katz@yale.edu
Kim,Connelly,connellyk@smh.ca
Jorge,Plutzky,jplutzky@bwh.harvard.edu
Chiadi,Ndumele,cndumel2@jhmi.edu
Marie-Eve,Piche,Marie-eve.piche.1@ulaval.ca
Tiffany,Powell-Wiley,tiffany.powell-wiley@nih.gov
Scott,Lear,slear@providencehealth.bc.ca
Prakash,Deedwania,deed@fresno.ucsf.edu
Sanjay,Rajagopalan,Sanjay.Rajagopalan@UHhospitals.org
Thomas,Thum,thum.thomas@mh-hannover.de
Tamer,Sallam,tsallam@mednet.ucla.edu
Glenn,Rowe,gcrowe@uab.edu
Nicole,Purcell,npurcell@ucsd.edu
W Robb,MacLellan,WRMacLellan@cardiology.washington.edu
Mark,Sussman,heartman4ever@icloud.com
Xuejun,Wang,Xuejun.Wang@usd.edu
Bianca,Brundel,b.brundel@vumc.nl
Ulrich,Hofmann,Hofmann_U2@ukw.de
Marcin,Wysoczynski,marcin.wysoczynski@louisville.edu
Olga,Tjurmina,ot3d@nih.gov
Yibin,Wang,yibinwang@mednet.ucla.edu
Katherine,Yutzey,katherine.yutzey@cchmc.org
Julie,McMullen,julie.mcmullen@bakeridi.edu.au
Steven,Jones,steven.p.jones@louisville.edu
Gordon,Tomaselli,gtomasel@jhmi.edu
Jessica,Wang,jessicawang@mednet.ucla.edu
Christoph,Rau,chrau@ucla.edu
Robin,Shaw,Robin.Shaw@cshs.org
Isabelle,Deschenes,isabelle.deschenes@case.edu
Seema,Mital,seema.mital@sickkids.ca
Cecilia,Lo,cel36@pitt.edu
Bradley,Marino,bradley.marino@northwestern.edu
Tondi,Harrison,tondi.harrison@nationwidechildrens.org
Gary,Satou,gsatou@mednet.ucla.edu
Sanket,Shah,ssshah@cmh.edu
Scott,Auerbach,scott.auerbach@childrenscolorado.org
Shanelle,Clarke,clarkes@kidsheart.com
Jeffrey,Anderson,jeffrey.anderson@cchmc.org
Gail,Pearson,pearsong@nhlbi.nih.gov
Elaine,Urbina,elaine.urbina@cchmc.org
Linda,Lambert,linda.lambert@hsc.utah.edu
Craig,Sable,csable@childrensnational.org
Justin,Zachariah,justinzachariah@yahoo.com
Roxanne,Kirsch,Roxanne.Kirsch@sickkids.ca
Karen,Uzark,karenu@med.umich.edu
David,Wood,d.wood@imperial.ac.uk
Magdi,Yacoub,m.yacoub@imperial.ac.uk
Anne Marie,Valente,anne.valente@cardio.chboston.org
Aimee,Armstrong,aimee.armstrong@nationwidechildrens.org
Luke,Burchill,burchilu@ohsu.edu
Wendy,Whiteside,wwhites@med.umich.edu
Nancy,Pike,npike@sonnet.ucla.edu
Ali,Zaidi,azaidi@montefiore.org
Iki,Adachi,Ixadachi@texaschildrens.org
Alison,Marsden,amarsden@stanford.edu
Julia,Steinberger,Stein055@umn.edu
Elaine,Urbina,elaine.urbina@cchmc.org
Jane,Newburger,jane.newburger@cardio.chboston.org
J William,Gaynor,gaynor@email.CHOP.edu
Anita,Moon-Grady,anita.moongrady@ucsf.edu
Pirooz,Eghtesady,eghtesadyp@wustl.edu
R Krishna,Kumar,rkrishnakumar@aims.amrita.edu
Andrea,Beaton,abeaton@cnmc.org
Yuli,Kim,yuli.kim@uphs.upenn.edu
Anitha,John,anjohn@cnmc.org
Kristine,Guleserian,kristine.guleserian@nicklaushealth.org
Catherine,Krawczeski,ckrawczeski@stanford.edu
Eric,Graham,grahamem@musc.edu
Donald,Lloyd-Jones,dlj@northwestern.edu
Roberto,Bolli,roberto.bolli@louisville.edu
Gemma,Figtree,gemma.figtree@sydney.edu.au
Joshua,Hare,jhare@med.miami.edu
Flora,Sam,flora.sam@bmc.org
Margaret,Redfield,redfield.margaret@mayo.edu
Scott,Levick,scott.levick@sydney.edu.au
Nikolaos,Frangogiannis,nikolaos.frangogiannis@einstein.yu.edu
Asa,Gustafsson,asag@ucsd.edu
Joshua,Hare,jhare@med.miami.edu
Aarif,Khakoo,akhakoo@amgen.com
Maria,Kontaridis,mkontaridis@mmrl.edu
Anthony,Muslin,Anthony.Muslin@sanofi.com
William,Pu,wpu@enders.tch.harvard.edu
Walter,Koch,walter.koch@temple.edu
Rudolf,De Boer,r.a.de.boer@umcg.nl
Eva,van Rooij,E.vanrooij@hubrecht.eu
Laurel,Grisanti,grisantil@missouri.edu
Robert,Gorman,gormanr@uphs.upenn.edu
Lorrie,Kirshenbaum,lorrie@sbrc.ca
Johannes,Brachmann,johannes.brachmann@klinikum-coburg.de
Jose,Joglar,jose.joglar@utsouthwestern.edu
Mark,Anderson,mark.anderson@jhmi.edu
Mina,Chung,chungm@ccf.org
Camille,Frazier-Mills,camille.frazier@duke.edu
Rose-Anne,Kenny,rkenny@tcd.ie
Trine,Krogh-Madsen,trk2002@med.cornell.edu
Glenn,Fishman,glenn.fishman@med.nyu.edu
Andrea,Russo,russo-andrea@cooperhealth.edu
Michael,Gold,goldmr@musc.edu
Silvia,Priori,silvia.priori@fsm.it
Gordon,Tomaselli,gtomasel@jhmi.edu
Emelia,Benjamin,emelia@bu.edu
Bulent,Gorenek,bulent@gorenek.com
Melvin,Scheinman,scheinman@medicine.ucsf.edu
John,Miller,jmiller6@iu.edu
William,Stevenson,william.g.stevenson@vanderbilt.edu
Paul,Wang,pjwang@stanford.edu
Emilia,Entcheva,entcheva@gwu.edu
David,Van Wagoner,vanwagd@ccf.org
Ulrika,Birgersdotter-Green,ubgreen@mail.ucsd.edu
Bruce,Wilkoff,wilkofb@ccf.org
Melissa,Robinson,MRobinson@cardiology.washington.edu
Steven,Lubitz,slubitz@mgh.harvard.edu
Wendy,Tzou,wendy.tzou@ucdenver.edu
Elizabeth,Kaufman,ekaufman@metrohealth.org
Emelia,Benjamin,emelia@bu.edu
Hugh,Calkins,hcalkins@jhmi.edu
Miguel,Leal,maleal@medicine.wisc.edu
Mark,Estes,nestes@tuftsmedicalcenter.org
Yong-mei,Cha,cha.yongmei@mayo.edu
Mark,Link,mark.link@UTSouthwestern.edu
Michael,Ezekowitz,michael.ezekowitz@comcast.net
Issei,Komuro,komuro-tky@umin.ac.jp
Sana,Al-Khatib,alkha001@mc.duke.edu
Mark,Link,mark.link@UTSouthwestern.edu
Gopi,Dandamudi,gdanda1@hotmail.com
Maurizio,Gasparini,maurizio.gasparini@humanitas.it
Elaine,Hylek,Elaine.Hylek@bmc.org
Jonathan,Dukes,jonathan_dukes@mac.com
Thomas,Dewland,dewland@ohsu.edu
Kristen,Patton,krpatton@u.washington.edu
Kristen,Patton,krpatton@u.washington.edu
Charles,Kennergren,charles.kennergren@vgregion.se
Jose,Joglar,jose.joglar@utsouthwestern.edu
Jonathan,Dukes,jonathan_dukes@mac.com
Kori,Zachrison,kzachrison@partners.org
Emelia,Benjamin,emelia@bu.edu
Ben,Freedman,ben.freedman@sydney.edu.au
Nicole,Redmond,nicole.redmond@nih.gov
Kirsten,Bibbins-Domingo,kdomingo@medsfgh.ucsf.edu
Marc,Jaffe,Mjaffe@resolvetosavelives.org
Daniel,Lackland,lackland@musc.edu
Gustavo,Restrepo Molina,gustavorestrepomd@une.net.co
Tracy,Wang,tracy.wang@duke.edu
Ambarish,Pandey,ambarish.pandey@outlook.com
Joao,Lima,jlima@jhmi.edu
Clyde,Yancy,cyancy@nm.org
Thomas,Wang,thomas.j.wang@vanderbilt.edu
Thomas,Cappola,thomas.cappola@uphs.upenn.edu
Carolyn,Ho,cho@partners.org
iacopo,Olivotto,olivottoi@aou-careggi.toscana.it
Pankaj,Arora,parora@uabmc.edu
Jane,Ferguson,jane.f.ferguson@vanderbilt.edu
Jason,Karnes,karnes@pharmacy.arizona.edu
JYOTI,Patel,jyoti.patel@well.ox.ac.uk
Konstantinos,Stellos,konstantinos.stellos@gmail.com
Patrick,Lawler,patrick.lawler@uhn.ca
Kent,Arrell,arrell.kent@mayo.edu
Jennie,Lin,jennie.lin@northwestern.edu
Sony,Tuteja,sonyt@mail.med.upenn.edu
Niels,Voigt,niels.voigt@med.uni-goettingen.de
Quinn,Wells,quinn.s.wells@vanderbilt.edu
Anwar,Chahal,chahal.anwar@mayo.edu
Andrew,Landstrom,landstro@bcm.edu
Kiran,Musunuru,kiranmusunuru@gmail.com
Margaret,Redfield,redfield.margaret@mayo.edu
Sanjiv,Shah,sanjiv.shah@northwestern.edu
Sidney,Smith,scs@med.unc.edu
Janice,Chyou,JaniceChyouMD@gmail.com
M Chadi,Alraies,alraies@hotmail.com
Abdulla,Shehab,a.shehab@uaeu.ac.ae
Joseph,Rogers,joseph.rogers@duke.edu
Gary,Francis,franc354@umn.edu
Denilson,Albuquerque,denilsoncalbuquerque@gmail.com
James,Fang,James.fang@hsc.utah.edu
Judith,Hochman,judith.hochman@nyumc.org
Christopher,O'Connor,christophe.oconnor@duke.edu
Amrut,Ambardekar,amrut.ambardekar@ucdenver.edu
JoAnn,Lindenfeld,JoAnn.Lindenfeld@ucdenver.edu
Sheryl,Chow,schow@westernu.edu
Gary,Francis,franc354@umn.edu
Charbel,Abi Khalil,cha2022@qatar-med.cornell.edu
Ileana,Pina,ilpina@montefiore.org
Todd,Dardas,tdardas@uw.edu
Ravi,Dhingra,ravidhingra27@hotmail.com
Mark,Drazner,mark.drazner@utsouthwestern.edu
Carolina,Masri,carolinamasri@yahoo.com
Mariell,Jessup,mjessup@leducq.com
Eric,Yang,EHYang@mednet.ucla.edu
Carrie,Lenneman,clenneman@uabmc.edu
Janani,Rangaswami,nephrologymd1@gmail.com
Edgar,Lerma,nephron0@gmail.com
Pedro,Jose,pjose@mfa.gwu.edu
Alexander,Staruschenko,staruschenko@mcw.edu
Suzanne,Oparil,soparil@uab.edu
George,Bakris,gbakris@gmail.com
Sandra,Taler,taler.sandra@mayo.edu
Kenneth,Jamerson,jamerson@umich.edu
Daichi,Shimbo,ds2231@cumc.columbia.edu
Paul,Drawz,draw0003@umn.edu
John,Burnett,burnett.john@mayo.edu
Timothy,McKinsey,timothy.mckinsey@ucdenver.edu
Wistremundo,Dones Figueroa,wistre@hotmail.com
Fernando,Lanas,lanastomas@gmail.com
Young,Oh,yoh@mail.nih.gov
Zhongjie,Sun,zsun10@uthsc.edu
Keith,Ferdinand,kferdina@tulane.edu
Ernesto,Schiffrin,ernesto.schiffrin@mcgill.ca
Alexander,Logan,logan@lunenfeld.ca
Fernando,Lanas,lanastomas@gmail.com
Gustavo,Restrepo Molina,gustavorestrepomd@une.net.co
Jeremy,Collins,collins@md.northwestern.edu
Jean,Jeudy,jjeudymd@gmail.com
Frandics,Chan,madalat@stanford.edu
Dianna,Bardo,dbardo@phoenixchildrens.com
Stephan,Achenbach,Stephan.Achenbach@uk-erlangen.de
Dominik,Fleischmann,d.fleischmann@stanford.edu
Kooresh,Shoghi,shoghik@wustl.edu
Christopher,Kramer,ckramer@virginia.edu
Antoinette,Gomes,agomes@mednet.ucla.edu
Jill,Jacobs,Jill.Jacobs@nyumc.org
Susan,Hobbs,susan_hobbs@urmc.rochester.edu
Garth,Beache,garth.beache@louisville.edu
Arthur,Stillman,aestill@emory.edu
Gautham,Reddy,reddyg@uw.edu
Diana,Litmanovich,dlitmano@bidmc.harvard.edu
Karin,Dill,Karin.Dill@umassmemorial.org
Barbara,Casadei,barbara.casadei@cardiov.ox.ac.uk
Jill,Jacobs,Jill.Jacobs@nyumc.org
Karen,Ordovas,karen.ordovas@ucsf.edu
Yeon H.,Choe,yhchoe@skku.edu
Peter,Mason,pmason@mcw.edu
Binita,Shah,binita.shah@nyumc.org
David,Moliterno,moliterno@uky.edu
Hani,Jneid,jneid@bcm.edu
Payam,Dehghani,payamde@gmail.com
Marco,Roffi,marco.roffi@hcuge.ch
Dharam,Kumbhani,dharam.kumbhani@utsouthwestern.edu
Hani,Jneid,jneid@bcm.edu
Heather,Gornik,gornikh@ccf.org
Joshua,Beckman,joshua.a.beckman@vanderbilt.edu
Binita,Shah,binita.shah@nyumc.org
Peter,Mason,pmason@mcw.edu
Hani,Jneid,jneid@bcm.edu
Manesh,Patel,manesh.patel@duke.edu
David,Parra,David.Parra@va.gov
Dominick,Angiolillo,dominick.angiolillo@jax.ufl.edu
Alice,Jacobs,alice.jacobs@bmc.org
Michael,Valentine,cmichaelvalentine@msn.com
Jacqueline,Tamis-Holland,jacqueline.tamis-holland@mountsinai.org
Binita,Shah,binita.shah@nyumc.org
Roxana,Mehran,roxana.mehran@mountsinai.org
E.,Tuzcu,tuzcue@ccf.org
Kristen,Knutson,kristen.knutson@northwestern.edu
Kelly,Baron,KGBaron@rush.edu
Keith,Ferdinand,kferdina@tulane.edu
Dana,Jorgensen,dana.jorgensen@pitt.edu
Chiadi,Ndumele,cndumel2@jhmi.edu
Clyde,Yancy Jr,cyancy@nm.org
Anne,Goldberg,agoldber@wustl.edu
Raul,Santos,rdsf@uol.com.br
Penny,Kris-Etherton,pmk3@psu.edu
Karen,Aspry,kaspry@lifespan.org
Dale,Abel,dale-abel@uiowa.edu
Shahid,Baba,spbaba01@louisville.edu
Barbara,Casadei,barbara.casadei@cardiov.ox.ac.uk
Néstor,Pérez,gperez@med.unlp.edu.ar
Lorrie,Kirshenbaum,lkirshenbaum@sbrc.ca
Jennifer,Kwong,jennifer.kwong@emory.edu
Gyorgy,Csordas,Gyorgy.Csordas@jefferson.edu
Richard,Kitsis,richard.kitsis@einstein.yu.edu
Willie,Abel,wmabel@uncc.edu
Kristen,Sethares,ksethares@umassd.edu
Kristin,Sandau,k-sandau@bethel.edu
Ruth,Masterson Creber,ruth.masterson@gmail.com
Laura,Rossi,lrossi@partners.org
Donna,Fitzsimons,d.fitzsimons@qub.ac.uk
Cynthia,Dougherty,cindyd@u.washington.edu
Christopher,Lee,christopher.lee.8@bc.edu
Barbara,Leeper,Bobbi.Leeper@bswhealth.org
Heidi,Salisbury,hsalisbury@stanfordhealthcare.org
Anthony,McGuire,amcguire@sjcme.edu
Barbara,Hinch,barbara_hinch@rush.edu
Kathleen,Fedyszen,K.Fedyszen@outlook.com
Rose,Shaffer,rose.shaffer@jefferson.edu
Anthony,McGuire,amcguire@sjcme.edu
Gayenell,Magwood,magwoodg@musc.edu
Kathryn,Wood,kathryn.wood@emory.edu
Tiny,Jaarsma,tiny.jaarsma@liu.se
Elaine,Steinke,elaine.steinke@shockers.wichita.edu
Barbara,Fletcher,bjflet@att.net
Matthew,Allison,mallison@ucsd.edu
Jeroen,Bax,j.j.bax@lumc.nl
Vera,Bittner,vbittner@uab.edu
Anand,Rohatgi,anand.rohatgi@utsouthwestern.edu
Erin,Michos,edonnell@jhmi.edu
Lora,Burke,lbu100@pitt.edu
Randi,Foraker,randi.foraker@wustl.edu
Christopher,Gardner,cgardner@stanford.edu
Jules,Griffin,jlg40@cam.ac.uk
Nicole,Redmond,nicole.redmond@nih.gov
P Barton,Duell,duellb@ohsu.edu
Francine,Welty,fwelty@bidmc.harvard.edu
Paul,Poirier,paul.poirier@criucpq.ulaval.ca
Marie-Eve,Piche,Marie-eve.piche.1@ulaval.ca
Bernard,Gersh,gersh.bernard@mayo.edu
Thomas,Lüscher,cardio@tomluescher.ch
Karol,Watson,KWatson@mednet.ucla.edu
Amit,Khera,amit.khera@utsouthwestern.edu
Aruna,Pradhan,apradhan@partners.org
George,Alba,galba@partners.org
Gopinath,Sutendra,sutendra@ualberta.ca
Roxane,Paulin,roxane.paulin@criucpq.ulaval.ca
George,Alba,galba@partners.org
Jonathan,Rich,jonathan.rich@northwestern.edu
Thenappan,Thenappan,tthenapp@umn.edu
Soni Savai,Pullamsetti,soni.pullamsetti@mpi-bn.mpg.de
Vinicio,De Jesus Perez,vdejesus@stanford.edu
Mark,Gladwin,gladwinmt@upmc.edu
Cameron,Dezfulian,dezfulianc@upmc.edu
Stephen,Chan,chansy@upmc.edu
Hyung,Chun,hyung.chun@yale.edu
Sudarshan,Rajagopal,sudarshan.rajagopal@dm.duke.edu
Gopinath,Sutendra,sutendra@ualberta.ca
Kimio,Satoh,satoh-k@cardio.med.tohoku.ac.jp
Bradley,Maron,bmaron@partners.org
Maya,Kumar,mayak@stanford.edu
Norrina,Allen,norrina-allen@northwestern.edu
Thomas,Maddox,tmaddox@alumni.rice.edu
Sherry-Ann,Brown,brown.sherryann@mayo.edu
Catherine,Benziger,cpastorius@gmail.com
David,Cohen,dcohen@saint-lukes.org
Steven,Bradley,steven.bradley@allina.com
Peter,Groeneveld,petergro@mail.med.upenn.edu
William,Borden,wborden@mfa.gwu.edu
Edward,Havranek,Ed.Havranek@dhha.org
Stacie,Daugherty,stacie.daugherty@ucdenver.edu
Monik,Jimenez,mjimenez11@partners.org
Ambarish,Pandey,ambarish.pandey@outlook.com
Connie,Tsao,ctsao1@bidmc.harvard.edu
Glenn,Levine,glevine@bcm.tmc.edu
Jonathan,Halperin,jonathan.halperin@mssm.edu
Vinay,Kini,vinay.kini@ucdenver.edu
Timothy,Fendler,fendlert@umkc.edu
Xiaoxi,Yao,yao.xiaoxi@mayo.edu
Seth,Baum,sjbaum@fpim.org
Pilar,Alcaide,Pilar.Alcaide@tufts.edu
Douglas,Tilley,douglas.tilley@temple.edu
Andrew,Naidech,a-naidech@northwestern.edu
Matthew,Maas,mbmaas@northwestern.edu
Sameer,Ansari,s-ansari@northwestern.edu
Muhammad,Hussain,hussais4@ccf.org
Joshua,Goldstein,jgoldstein@partners.org
Thorsten,Lewalter,th.lewalter@uni-bonn.de
Carole,Decker,c1decker@saint-lukes.org
Debbie,Summers,dsummers@saint-lukes.org
Jennifer,Lawton,jlawton4@jhmi.edu
Anson,Lee,ansonlee@stanford.edu
Mark,Peterson,PetersonM@smh.ca
Michael,Fischbein,mfischbe@stanford.edu
Subodh,Verma,vermasu@smh.ca
Elaine,Tseng,elaine.tseng@ucsfmedctr.org
Peter,Neuburger,peter.neuburger@NYUMC.org
Wilson,Szeto,szetow@uphs.upenn.edu
Ourania,Preventza,preventz@bcm.edu
Linda,Shore-Lesserson,lshoreless@northwell.edu
Subodh,Verma,vermasu@smh.ca
Pavan,Atluri,pavan.atluri@uphs.upenn.edu
Michael,Fischbein,mfischbe@stanford.edu
Vidya,Rao,vids2005@gmail.com
Brian,Lima,blima@northwell.edu
Shipra,Arya,sarya1@stanford.edu
Natalie,Evans,evansn2@ccf.org
Isac,Thomas,icthomas@ucsd.edu
Matthew,Allison,mallison@ucsd.edu
Scott,Damrauer,scott.damrauer@uphs.upenn.edu
Ngan,Huang,ngantina@stanford.edu
Andrea,Jensen,jensenag@med.umich.edu
Aruna,Pradhan,apradhan@partners.org
Sanjay,Misra,misra.sanjay@mayo.edu
Thomas,Wakefield,thomasww@med.umich.edu
Peter,Henke,henke@umich.edu
Umberto,Campia,ucampia@gmail.com
Aruna,Pradhan,apradhan@partners.org
Esther S.H.,Kim,esther.kim@vanderbilt.edu
Mary,Cushman,mary.cushman@uvm.edu
Margo,Minissian,minissianm@cshs.org
Jeffrey,Berger,jeffrey.berger@nyumc.org
Peter,Henke,henke@umich.edu
Gregory,Piazza,gpiazza@partners.org
Esther S.H.,Kim,esther.kim@vanderbilt.edu
Masanori,Aikawa,maikawa@rics.bwh.harvard.edu
Michael,Conte,michael.conte2@ucsf.edu
David,Brasil,davidpbrasil@cardiol.br
Lars,Norgren,lars.norgren@orebroll.se
Gregory,Piazza,gpiazza@partners.org
Heather,Gornik,gornikh@ccf.org
Paul,DiMusto,dimusto@surgery.wisc.edu
Ana,Barac,Ana.Barac@Medstar.net
John,Groarke,jgroarke@partners.org
Manesh,Patel,manesh.patel@duke.edu
Peter,Henke,henke@umich.edu
Teresa,Carmen,tcarmanmd@aol.com
Dharam,Kumbhani,dharam.kumbhani@utsouthwestern.edu
Wai Hong,Tang,tangw@ccf.org
Lei,Xiao,lei.xiao@nih.gov
Aruna,Pradhan,apradhan@partners.org
Kunihiro,Matsushita,kmatsu@med.nagoya-u.ac.jp
Martha,Gulati,marthagulati@email.arizona.edu
Annabelle,Volgman,annabelle_volgman@rush.edu
Catherine,Benziger,cpastorius@gmail.com
Annabelle,Volgman,annabelle_volgman@rush.edu
Laxmi,Mehta,laxmi.mehta@osumc.edu
Karol,Watson,KWatson@mednet.ucla.edu
Susan,Zieman,susan.zieman@nih.gov
Maciej,Banach,maciejbanach@aol.co.uk
Mercedes,Carnethon,carnethon@northwestern.edu
Herman,Taylor,htaylor@msm.edu