<?xml version="1.0" encoding="utf-8"?>
<!-- Generator: Adobe Illustrator 18.1.1, SVG Export Plug-In . SVG Version: 6.00 Build 0)  -->
<svg version="1.1" id="Layer_1" xmlns="http://www.w3.org/2000/svg" xmlns:xlink="http://www.w3.org/1999/xlink" x="0px" y="0px"
	 viewBox="41.2 100.9 277.2 94" enable-background="new 41.2 100.9 277.2 94" xml:space="preserve">
<g>
	<path fill="#00618D" d="M226.7,134.7c0,5.3-4.3,9.6-9.6,9.6c-5.3,0-9.6-4.3-9.6-9.6c0-5.3,4.3-9.6,9.6-9.6
		C222.4,125.1,226.7,129.4,226.7,134.7"/>
	<path fill="#00618D" d="M131.2,134.7c0,5.3,4.3,9.6,9.6,9.6c5.3,0,9.6-4.3,9.6-9.6c0-5.3-4.3-9.6-9.6-9.6
		C135.5,125.1,131.2,129.4,131.2,134.7"/>
	<path fill="#EF3A44" d="M188.6,136.2c0,5.3-4.3,9.6-9.6,9.6c-5.3,0-9.6-4.3-9.6-9.6c0-5.3,4.3-9.6,9.6-9.6
		C184.3,126.6,188.6,130.9,188.6,136.2"/>
	<path fill="#00618D" d="M250.6,117.8c-2.1-1.4-3.5,0.1-5.5,1.6c-1.4,1.1-4.5,7.3-8.8,12.8c-2,2.6-9.1,13.1-16.3,14.6
		c-7.2,1.5-12.5-2.7-15.4-9c-3.1-12,1.3-30.3,0.9-32.2c0,0-0.2-4.6-3.9-4.8c-1.4,12.4-3.1,36.4-16.9,55.3
		c-9.8,13.5-23.8,25.7-33.8,38.8h43.5c0.3-1.3,0.6-2.6,1-4c4.2-17.3,44-39.4,55.8-66.9C251.1,124,253.1,119.7,250.6,117.8z"/>
	<path fill="#00618D" d="M162.6,190.9c0.3,1.4,0.7,2.7,1,4h43.5c-10.1-13.1-24-25.3-33.8-38.8c-13.8-18.9-15.5-42.9-16.9-55.3
		c-3.6,0.2-3.9,4.8-3.9,4.8c-0.4,1.9,3.9,20.3,0.9,32.2c-2.9,6.2-8.2,10.5-15.4,9c-7.2-1.5-14.3-12-16.3-14.6
		c-4.3-5.6-7.3-11.7-8.8-12.8c-2-1.5-3.4-3-5.5-1.6c-2.5,1.9-0.6,6.2-0.5,6.2C118.6,151.5,158.4,173.6,162.6,190.9z"/>
	<path fill="#EF3A44" d="M194.7,194.9c1.1-37.6,4.4-72.2,6.9-94h-0.4c-3.7,0.1-4.3,4.6-4.3,4.6c-0.6,2.9-1.8,11.4-2.8,17.4
		c-1,6-2.6,15.9-3.7,18.1c-1.8,3.6-5.4,6.3-9.5,6.9c-0.6,0.1-1.2,0.2-1.9,0.2c-0.6,0-1.2-0.1-1.9-0.2c-4.2-0.6-7.7-3.2-9.5-6.9
		c-1.1-2.2-2.7-12.1-3.7-18.1c-1-6-2.2-14.5-2.8-17.4c0,0-0.6-4.5-4.3-4.6h-0.4c2.5,21.9,5.7,56.5,6.8,94H194.7z"/>
</g>
<g>
	<path fill="#B0AFB0" d="M137.5,171.3l4.4,15.8l4.4-15.8c0.1-0.3,0.3-0.6,0.6-0.8c0.3-0.2,0.6-0.3,1-0.3c0.3,0,0.6,0.1,0.9,0.3
		c0.3,0.2,0.5,0.5,0.6,0.8l4.4,15.8l4.4-15.8c0.1-0.2,0.2-0.4,0.4-0.6c0.3-0.3,0.7-0.5,1.2-0.5c0.5,0,0.8,0.2,1.1,0.5
		c0.3,0.3,0.5,0.7,0.5,1.2c0,0.2,0,0.4-0.1,0.6l-5.8,21c-0.1,0.4-0.4,0.7-0.6,1c-0.3,0.2-0.6,0.4-1,0.4c-0.5,0-0.8-0.2-1.1-0.5
		c-0.2-0.2-0.4-0.5-0.5-0.8l-4.3-15.6l-4.3,15.5c-0.1,0.4-0.4,0.7-0.6,1c-0.3,0.2-0.6,0.4-1,0.4c-0.5,0-0.8-0.2-1.2-0.5
		c-0.2-0.2-0.4-0.5-0.5-0.8l-5.8-21.1c-0.1-0.2-0.1-0.5-0.1-0.6c0-0.5,0.2-0.8,0.5-1.2c0.3-0.3,0.7-0.5,1.2-0.5
		c0.5,0,0.8,0.2,1.2,0.5C137.3,170.9,137.4,171.1,137.5,171.3"/>
	<path fill="#B0AFB0" d="M173,173.5c-1.3,0-2.4,0.2-3.5,0.7c-1,0.4-2,1.1-2.9,2c-0.9,0.9-1.6,1.9-2,2.9s-0.6,2.2-0.6,3.5
		c0,2.5,0.9,4.6,2.7,6.4c1.8,1.8,3.9,2.6,6.4,2.6s4.6-0.9,6.4-2.6c1.8-1.8,2.7-3.9,2.7-6.4s-0.9-4.6-2.7-6.4
		C177.7,174.4,175.5,173.5,173,173.5 M185.4,182.6c0,3.4-1.2,6.3-3.6,8.7c-2.4,2.4-5.3,3.6-8.7,3.6s-6.3-1.2-8.7-3.6
		s-3.6-5.3-3.6-8.7s1.2-6.3,3.6-8.7c2.4-2.4,5.3-3.6,8.7-3.6c3.4,0,6.3,1.2,8.7,3.6c1.2,1.2,2.1,2.5,2.7,4
		C185.1,179.3,185.4,180.9,185.4,182.6"/>
	<path fill="#B0AFB0" d="M190.4,173.5v8.6h4.3c0.6,0,1.2-0.1,1.7-0.3c0.5-0.2,1-0.5,1.4-0.9c0.4-0.4,0.7-0.8,0.9-1.4
		c0.2-0.5,0.3-1.1,0.3-1.7c0-0.6-0.1-1.2-0.3-1.7s-0.5-1-0.9-1.4c-0.4-0.4-0.8-0.7-1.4-0.9c-0.5-0.2-1.1-0.3-1.7-0.3L190.4,173.5
		L190.4,173.5z M187.1,193.3v-21.4c0-0.2,0-0.4,0.1-0.6c0.1-0.2,0.2-0.4,0.4-0.5c0.2-0.2,0.3-0.3,0.5-0.4c0.2-0.1,0.4-0.1,0.6-0.1
		h5.9c1,0,2,0.2,2.9,0.6s1.7,0.9,2.4,1.6c0.7,0.7,1.2,1.5,1.6,2.4c0.4,0.9,0.6,1.9,0.6,2.9c0,0.7-0.1,1.3-0.3,2
		c-0.2,0.6-0.4,1.2-0.7,1.8s-0.7,1.1-1.2,1.6s-1.1,0.9-1.7,1.3l4.9,7.9c0.2,0.3,0.3,0.6,0.3,0.9c0,0.2,0,0.5-0.1,0.6
		c-0.1,0.2-0.2,0.4-0.4,0.5c-0.2,0.2-0.3,0.3-0.5,0.4c-0.2,0.1-0.4,0.1-0.6,0.1c-0.6,0-1-0.3-1.4-0.8l-5.4-8.7h-4.6v7.9
		c0,0.5-0.2,0.8-0.5,1.2c-0.3,0.3-0.7,0.5-1.2,0.5c-0.5,0-0.8-0.2-1.2-0.5C187.3,194.1,187.1,193.7,187.1,193.3"/>
	<path fill="#B0AFB0" d="M205.6,171.9c0-0.5,0.2-0.8,0.5-1.2c0.3-0.3,0.7-0.5,1.2-0.5s0.8,0.2,1.2,0.5c0.3,0.3,0.5,0.7,0.5,1.2v9.1
		l10.2-10.2c0.3-0.3,0.7-0.5,1.2-0.5c0.2,0,0.4,0,0.6,0.1c0.2,0.1,0.4,0.2,0.5,0.4c0.2,0.2,0.3,0.3,0.4,0.5c0.1,0.2,0.1,0.4,0.1,0.6
		c0,0.5-0.2,0.8-0.5,1.2l-8.1,8.1l8.2,11.2c0.2,0.3,0.3,0.6,0.3,0.9c0,0.2,0,0.4-0.1,0.6c-0.1,0.2-0.2,0.4-0.3,0.5
		c-0.1,0.2-0.3,0.3-0.5,0.4c-0.2,0.1-0.4,0.1-0.6,0.1c-0.6,0-1.1-0.2-1.4-0.7l-7.9-10.7l-2.2,2.2v7.6c0,0.5-0.2,0.8-0.5,1.2
		c-0.3,0.3-0.7,0.5-1.2,0.5c-0.5,0-0.8-0.2-1.2-0.5c-0.3-0.3-0.5-0.7-0.5-1.2L205.6,171.9L205.6,171.9z"/>
	<path fill="#B0AFB0" d="M227.3,173.5v9.8h3.1c0.7,0,1.3-0.1,1.9-0.4c0.6-0.3,1.1-0.6,1.6-1s0.8-1,1.1-1.6c0.3-0.6,0.4-1.2,0.4-1.9
		c0-0.7-0.1-1.3-0.4-1.9c-0.3-0.6-0.6-1.1-1.1-1.6s-1-0.8-1.6-1c-0.6-0.3-1.2-0.4-1.9-0.4L227.3,173.5L227.3,173.5z M224,193.3
		v-21.4c0-0.2,0-0.4,0.1-0.6c0.1-0.2,0.2-0.4,0.4-0.5c0.2-0.2,0.3-0.3,0.5-0.4c0.2-0.1,0.4-0.1,0.6-0.1h4.7c0.7,0,1.5,0.1,2.1,0.3
		c0.7,0.2,1.3,0.5,1.9,0.8c0.6,0.4,1.2,0.8,1.7,1.3c0.5,0.5,0.9,1,1.3,1.7c0.4,0.6,0.6,1.3,0.8,1.9c0.2,0.7,0.3,1.4,0.3,2.1
		c0,2.2-0.8,4.2-2.4,5.8c-1.6,1.6-3.5,2.4-5.8,2.4h-3.1v6.7c0,0.5-0.2,0.8-0.5,1.2c-0.3,0.3-0.7,0.5-1.2,0.5s-0.8-0.2-1.2-0.5
		C224.2,194.1,224,193.7,224,193.3"/>
	<path fill="#B0AFB0" d="M240.7,171.9c0-0.5,0.2-0.8,0.5-1.2c0.3-0.3,0.7-0.5,1.2-0.5s0.8,0.2,1.2,0.5c0.3,0.3,0.5,0.7,0.5,1.2v19.7
		h11.4c0.5,0,0.8,0.2,1.2,0.5c0.3,0.3,0.5,0.7,0.5,1.2c0,0.5-0.2,0.8-0.5,1.2c-0.3,0.3-0.7,0.5-1.2,0.5h-13.1c-0.2,0-0.5,0-0.6-0.1
		c-0.2-0.1-0.4-0.2-0.5-0.4c-0.2-0.2-0.3-0.3-0.4-0.5c-0.1-0.2-0.1-0.4-0.1-0.6V171.9z"/>
	<path fill="#B0AFB0" d="M271.8,183.3l-2.7-6.9l-2.7,6.9H271.8z M259.4,192.5l8.2-21.1c0.3-0.7,0.8-1.1,1.6-1.1
		c0.7,0,1.2,0.4,1.6,1.1l8.2,21.2c0.1,0.2,0.1,0.4,0.1,0.7c0,0.5-0.2,0.8-0.5,1.2c-0.3,0.3-0.7,0.5-1.2,0.5c-0.5,0-0.8-0.2-1.1-0.5
		c-0.2-0.2-0.3-0.3-0.4-0.5l-2.9-7.3h-7.9l-2.9,7.3c-0.1,0.2-0.2,0.4-0.4,0.5c-0.3,0.3-0.7,0.5-1.2,0.5c-0.5,0-0.8-0.2-1.1-0.5
		c-0.3-0.3-0.5-0.7-0.5-1.2C259.2,193,259.2,192.8,259.4,192.5"/>
	<path fill="#B0AFB0" d="M297.2,189.3c0.2,0,0.4,0,0.6,0.1c0.2,0.1,0.4,0.2,0.5,0.4c0.2,0.1,0.3,0.3,0.4,0.5
		c0.1,0.2,0.1,0.4,0.1,0.6c0,0.4-0.2,0.8-0.5,1.2c-2.3,1.8-4.9,2.7-7.7,2.7c-3.4,0-6.3-1.2-8.7-3.6c-2.4-2.4-3.6-5.3-3.6-8.7
		c0-3.4,1.2-6.3,3.6-8.7c2.4-2.4,5.3-3.6,8.7-3.6c2.9,0,5.6,1,7.9,2.9c0.3,0.3,0.4,0.6,0.4,1.1c0,0.2,0,0.5-0.1,0.6
		c-0.1,0.2-0.2,0.4-0.4,0.5c-0.2,0.2-0.3,0.3-0.5,0.4c-0.2,0.1-0.4,0.1-0.6,0.1c-0.4,0-0.8-0.2-1.1-0.5c-0.8-0.6-1.6-1.1-2.6-1.4
		c-0.9-0.3-1.9-0.5-3-0.5c-2.5,0-4.6,0.9-6.4,2.7c-1.8,1.8-2.6,3.9-2.6,6.4s0.9,4.6,2.6,6.4c1.8,1.8,3.9,2.6,6.4,2.6
		c2.1,0,4-0.7,5.7-2C296.5,189.5,296.8,189.4,297.2,189.3"/>
	<path fill="#B0AFB0" d="M316.9,191.6c0.5,0,0.8,0.2,1.2,0.5c0.3,0.3,0.5,0.7,0.5,1.2c0,0.5-0.2,0.8-0.5,1.2
		c-0.3,0.3-0.7,0.5-1.2,0.5h-14.2c-0.2,0-0.5,0-0.6-0.1c-0.2-0.1-0.4-0.2-0.5-0.4c-0.2-0.2-0.3-0.3-0.4-0.5
		c-0.1-0.2-0.1-0.4-0.1-0.6v-21.4c0-0.2,0-0.4,0.1-0.6c0.1-0.2,0.2-0.4,0.4-0.5c0.1-0.2,0.3-0.3,0.5-0.4c0.2-0.1,0.4-0.1,0.6-0.1
		h14.2c0.5,0,0.8,0.2,1.2,0.5c0.3,0.3,0.5,0.7,0.5,1.2c0,0.5-0.2,0.8-0.5,1.2c-0.3,0.3-0.7,0.5-1.2,0.5h-12.6v7.4h9.1
		c0.5,0,0.8,0.2,1.2,0.5c0.3,0.3,0.5,0.7,0.5,1.2s-0.2,0.8-0.5,1.2c-0.3,0.3-0.7,0.5-1.2,0.5h-9.1v7.4H316.9z"/>
</g>
<g>
	<path fill="#B0AFB0" d="M52.1,176.7c0-1-0.4-1.9-1.1-2.6c-0.7-0.7-1.6-1.1-2.6-1.1h-3.6v18.2h3.6c1,0,1.9-0.4,2.6-1.1
		c0.7-0.7,1.1-1.6,1.1-2.6V176.7z M52.2,170.4c1.1,0.6,2,1.5,2.6,2.6c0.6,1.1,1,2.3,1,3.6v10.9c0,1.3-0.3,2.5-1,3.6s-1.5,2-2.6,2.6
		c-1.1,0.6-2.3,1-3.6,1h-7.3v-21.8v-3.6h7.3C49.9,169.4,51.1,169.8,52.2,170.4"/>
	<path fill="#B0AFB0" d="M65.2,180.4c1,0,1.9-0.4,2.6-1.1c0.7-0.7,1.1-1.6,1.1-2.6s-0.4-1.9-1.1-2.6s-1.6-1.1-2.6-1.1h-3.6v7.2H65.2
		z M71.8,184.6c0.4,0.9,0.6,1.9,0.6,3v7.3h-3.6v-7.3c0-1-0.4-1.9-1.1-2.6c-0.7-0.7-1.6-1.1-2.6-1.1h-3.6v10.9H58v-25.4h7.3
		c1.3,0,2.5,0.3,3.6,1c1.1,0.6,2,1.5,2.6,2.6c0.6,1.1,1,2.3,1,3.6c0,1.1-0.2,2.1-0.6,3c-0.4,0.9-1,1.8-1.8,2.4
		C70.8,182.8,71.4,183.7,71.8,184.6"/>
	<polygon fill="#B0AFB0" points="78.3,173.1 78.3,180.4 89.2,180.4 89.2,184 78.3,184 78.3,191.2 89.2,191.2 89.2,194.9 74.7,194.9 
		74.7,184 74.7,173.1 74.7,169.4 89.2,169.4 89.2,173.1 	"/>
	<path fill="#B0AFB0" d="M102.3,176.7c0-1-0.4-1.9-1.1-2.6c-0.7-0.7-1.6-1.1-2.6-1.1s-1.9,0.4-2.6,1.1c-0.7,0.7-1.1,1.6-1.1,2.6v3.6
		h7.3L102.3,176.7L102.3,176.7z M102.3,170.5c1.1,0.7,2,1.6,2.6,2.7c0.6,1.1,1,2.4,1,3.7v18.1h-3.6V184H95v10.9h-3.6v-18.2
		c0-1.3,0.3-2.5,1-3.6c0.6-1.1,1.5-2,2.7-2.6c1.1-0.6,2.3-1,3.7-1C100,169.4,101.2,169.8,102.3,170.5"/>
	<path fill="#B0AFB0" d="M129.9,170.4c1.1,0.6,2,1.5,2.7,2.7c0.6,1.1,1,2.3,1,3.6v18.2h-3.6v-18.2c0-1-0.4-1.9-1.1-2.6
		c-0.7-0.7-1.6-1.1-2.6-1.1s-1.9,0.4-2.6,1.1c-0.7,0.7-1.1,1.6-1.1,2.6v18.2H119v-18.2c0-1-0.4-1.9-1.1-2.6
		c-0.7-0.7-1.6-1.1-2.6-1.1s-1.9,0.4-2.6,1.1c-0.7,0.7-1.1,1.6-1.1,2.6v18.2h-3.6v-18.2c0-1.3,0.3-2.5,1-3.6c0.6-1.1,1.5-2,2.7-2.7
		c1.1-0.6,2.3-1,3.6-1c1.1,0,2.1,0.2,3,0.6c0.9,0.4,1.8,1,2.4,1.8c0.7-0.8,1.5-1.4,2.4-1.8c0.9-0.4,1.9-0.6,3-0.6
		C127.5,169.4,128.8,169.8,129.9,170.4"/>
</g>
</svg>
