﻿Email,,
sglloyd@uab.edu,#N/A,
bomar@health.southalabama.edu ,#N/A,
smitheugenes@uams.edu,#N/A,
akil.loli@bannerhealth.com,#N/A,
Fortuin.David@mayo.edu,#N/A,
jindik@email.arizona.edu,registered,resubscdribe these people later
hongor@sutterhealth.org,#N/A,
joshua.goldhaber@cshs.org,#N/A,
robert.lundstrom@kp.org,#N/A,
mingsum.lee@kp.org,#N/A,
lstoletn@llu.edu,#N/A,
mbudoff@labiomed.org,registered,resubscdribe these people later
dylan.wessman@med.navy.mil,#N/A,
malhar.patel@scrippshealth.org,#N/A,
ramdas.pai@medsch.ucr.edu ,#N/A,
giacomini@stanford.edu,#N/A,
twrsmith@ucdavis.edu ,#N/A,
lombardo@uci.edu,#N/A,
kwatson@mednet.ucla.edu,#N/A,
dblanchard@ucsd.edu,#N/A,
tdaniele@fresno.ucsf.edu,#N/A,
Carol.Iwaoka@ucsf.edu ,#N/A,
shavelle@usc.edu,#N/A,
Peter.Buttrick@ucdenver.edu ,#N/A,
pcmcph@bpthosp.org,#N/A,
ira.galin@danhosp.org,#N/A,
jeffrey.kluger@hhchealth.org ,#N/A,
jmeng@uchc.edu,#N/A,
edward.miller@yale.edu ,#N/A,
asolomon@mfa.gwu.edu,#N/A,
charu.Gandotra@howard.edu,#N/A,
gaby.weissman@medstar.net,#N/A,
Bryan.Curry@hcahealthcare.com,#N/A,
michael.chizner@ascension.org ,#N/A,
navase@ccf.org,#N/A,
brijmaini1@gmail.com ,#N/A,
rchait@med.miami.edu ,#N/A,
oken.keith@mayo.edu,#N/A,
"jcbrenes@msmc.com
",#N/A,
rami.akel@hchealthcare.com,#N/A,
matthew.mckillop@medicine.ufl.edu ,#N/A,
gladys.velarde@jax.ufl.edu,#N/A,
calfonso@med.miami.edu,#N/A,
xavierprida@health.usf.edu,#N/A,
brwilli@emory.edu,#N/A,
vrobinso@georgiahealth.edu,#N/A,
rsachdeva@msm.edu ,#N/A,
rhong@queens.org,#N/A,
paul-lindower@uiowa.edu,#N/A,
Ted.Wang-MD@advocatehealth.com,#N/A,
karen.mulcahy@advocatehealth.com,#N/A,
faheem.ahmad@franciscanalliance.com ,#N/A,
masyed@lumc.edu,#N/A,
t-holly@northwestern.edu,#N/A,
sandeep.khosla@sinai.org,#N/A,
JSaucedo@northshore.org,#N/A,
smungee@uic.edu,#N/A,
clifford_j_kavinsky@rush.edu,#N/A,
mkim45@siumed.edu ,#N/A,
bosko_margeta@rush.edu,#N/A,
pward@medicine.bsd.uchicago.edu,#N/A,
auseon@uic.edu,#N/A,
dbhakta@iupui.edu,#N/A,
eprystow@thecaregroup.com,#N/A,
dwilson@kumc.edu,#N/A,
 v.sorrell@uky.edu,#N/A,
gahirs01@louisville.edu,#N/A,
njain@lsuhsc.edu,#N/A,
kmodi@lsuhsc.edu,#N/A,
hventura@ochsner.org,registered,resubscdribe these people later
lejemtel@tulane.edu,#N/A,
mara.slawsky@bhs.org,#N/A,
jkannam@bidmc.harvard.edu,#N/A,
frederick.ruberg@bmc.org,registered,resubscdribe these people later
dmpolk@partners.org,#N/A,
muqtada.chaudhry@lahey.org,#N/A,
ddrachman@partners.org,#N/A,
michael.johnstone@caritaschristi.org,#N/A,
bonnie.weiner@stvincenthospital.com ,#N/A,
ghuggins@tuftsmedicalcenter.org ,#N/A,
naomi.botkin@umassmemorial.org ,#N/A,
sschulma@jhmi.edu,#N/A,
msrivast@medicine.umaryland.edu,#N/A,
todd.c.villines.mil@mail.mil,#N/A,
 sfrancis@mmc.org,#N/A,
Steven.werns@beaumont.org,#N/A,
david.gowman@beaumont.org,#N/A,
mgallagher12677@direct.beaumont.edu,#N/A,
matthew.ebinger@genesys.org,#N/A,
lafonso@med.wayne.edu ,#N/A,
brabbani17016@direct.hfhs.org,#N/A,
iksreimzak@gmail.com ,#N/A,
mmadala@hotmail.com,#N/A,
abela@msu.edu,#N/A,
Wassim.Nona@ascension.org,#N/A,
nancy.mesiha@stjohn.org,#N/A,
chandra.reddy@stjoeshealth.org,#N/A,
phagan@umich.edu,#N/A,
bradley.bart@hcmed.org,#N/A,
klarich.kyle@mayo.edu,#N/A,
beach128@umn.edu,#N/A,
limmj@slu.edu,#N/A,
enriquezj@umkc.edu,#N/A,
Jprather@mrhc.org ,#N/A,
tskelton@umc.edu ,#N/A,
nekkantir@ecu.edu,#N/A,
Salvatore.P.Costa@Hitchcock.org,#N/A,
rick_stouffer@med.unc.edu,#N/A,
sgandhi@wakehealth.edu,#N/A,
venkataalla@creighton.edu ,#N/A,
aeasley@unmc.edu,#N/A,
Salvatore.P.Costa@Hitchcock.org,#N/A,
hollenberg-steven@cooperhealth.edu,registered,resubscdribe these people later
dcalderon@meridianhealth.com ,#N/A,
mark.rosenthal@atlantichealth.org,#N/A,
marcohen@sbhcs.com,#N/A,
gerula@umdnj.edu,#N/A,
moreyrae@umdnj.edu,#N/A,
shamoonfa@sjhmc.org,#N/A,
masheldon@salud.unm.edu ,#N/A,
chahsan@medicine.nevada.edu,#N/A,
feinS@mail.amc.edu,#N/A,
bjpage3@buffalo.edu,#N/A,
ncoplan@lenoxhill.net,#N/A,
jshani@maimonidesmed.org,#N/A,
kferrick@montefiore.org,#N/A,
smonrad@montefiore.org,#N/A,
deepika.misra@mountsinai.org ,#N/A,
dfinkiel@chpnet.org,#N/A,
jonathan.halperin@mssm.edu,registered,resubscdribe these people later
martin.goldman@mssm.edu,#N/A,
jacqueline.tamis-holland@mountsinai.org,registered,resubscdribe these people later
rzeltser@numc.edu ,#N/A,
jfh9003@nyp.org,#N/A,
barry.rosenzweig@nyumc.org,#N/A,
ecjones@med.cornell.edu,#N/A,
sm460@columbia.edu,#N/A,
"Seth H. Goldbarg, M.D., FACC, FHRS",#N/A,
dmarchan@nshs.edu,#N/A,
arozanski@chpnet.org,#N/A,
jlaffe1007@aol.com,#N/A,
noelle.mann@stonybrook.edu,#N/A,
johnathan.marmur@downstate.edu,#N/A,
carhartr@upstate.edu,#N/A,
james_eichelberger@urmc.rochester.edu,#N/A,
howard.cooper@wmchealth.org,registered,resubscdribe these people later
jdeleon@winthrop.org,#N/A,
menonv@ccf.org,#N/A,
nicholas.maksim@ohiohealth.com ,#N/A,
harvey.hahn@Khnetwork.org,#N/A,
arovner@metrohealth.org,#N/A,
Scott.Maffett@osumc.edu,#N/A,
pennms@summahealth.org,#N/A,
bdh6@case.edu,#N/A,
david.harris@uc.edu,#N/A,
anil.mathew@utoledo.edu ,#N/A,
abdul.wase@wright.edu,#N/A,
dwildes@okstate.edu,#N/A,
"chittur-sivaram@ouhsc.edu
",#N/A,
gelowj@ohsu.edu ,#N/A,
ipoornim@wpahs.org,#N/A,
sc55@drexel.edu ,#N/A,
figueredov@einstein.edu,#N/A,
tdbauch@geisinger.edu,#N/A,
sporn_daniel@guthrie.org,#N/A,
fsilvest@mail.med.upenn.edu ,#N/A,
burkej@casep.com,#N/A,
Matthew_w.martinez@lvhn.org ,#N/A,
dwolbrette@hmc.psu.edu,#N/A,
jamshid.shirani@sluhn.org,registered,resubscdribe these people later
pravin.patil@tuhs.temple.edu,registered,resubscdribe these people later
matthew.decaro@jefferson.edu,#N/A,
berlacherk@upmc.edu,#N/A,
pancholys@strpweb.org,#N/A,
 angel@charma.uprm.edu,#N/A,
luis.rodriguez-ospina@med.va.gov,#N/A,
raymond_russell@brown.edu.,#N/A,
craigml@musc.edu,#N/A,
barry.feldman@palmettohealth.org ,#N/A,
adam.stys@sanfordhealth.org,#N/A,
alison.bailey@erlanger.org ,#N/A,
ramuv@etsu.edu,#N/A,
kramanathan@uthsc.edu,#N/A,
brogers@utmck.edu,#N/A,
lisa.a.mendes@vanderbilt.edu ,#N/A,
nlakkis@bcm.edu,#N/A,
scoulter@bcm.edu,#N/A,
peter.mccullough@baylorhealth.edu,#N/A,
Gregg.gerasimon@mail.mil,#N/A,
shlittle@houstonmethodist.org,#N/A,
sthambidorai@ppghealthcare.com ,#N/A,
CChiles@swmail.sw.org,#N/A,
leighann.jenkins@ttuhsc.edu,#N/A,
debabrata.mukherjee@ttuhsc.edu,#N/A,
francisco.fuentes@uth.tmc.edu,#N/A,
"erikson@uthscsa.edu
",#N/A,
amit.khera@utsouthwestern.edu ,#N/A,
jack.morshedzadeh@hsc.utah.edu,#N/A,
dcsane@carilionclinic.org,#N/A,
christoper.defilippi@inova.org ,#N/A,
pmason@virginia.edu,#N/A,
gkalahasty@mcvh-vcu.edu,#N/A,
Friederike.Keating@uvmhealth.org,#N/A,
rosariof@uw.edu,#N/A,
suhail.allaqaband@aurora.org,#N/A,
mwidlans@mcw.edu,registered,resubscdribe these people later
maleal@medicine.wisc.edu,#N/A,
Mark.Bates@CAMC.org ,#N/A,
ethompson@marshall.edu,#N/A,
arenzelli@hsc.wvu.edu,#N/A,
Eddie.Pan@heart.org,#N/A,
mveazey@uabmc.edu,#N/A,
kjwilson@health.southalabama.edu,#N/A,
dozieramandal@uams.edu,#N/A,
angela.franco@bannerhealth.com,#N/A,
storey.elise@mayo.edu ,#N/A,
jacksong@shc.arizona.edu,#N/A,
chesteL1@sutterhealth.org,#N/A,
kramerdn@cshs.org,#N/A,
sarah.sanchez@kp.org,#N/A,
Autumn.S.Ober@kp.org,#N/A,
cwitters@llu.edu,#N/A,
mstewart@labiomed.org,#N/A,
virginia.l.wareing.civ@mail.mil,#N/A,
davis.mary@scrippshealth.org ,#N/A,
adrienne.bawcum@dignityhealth.org,#N/A,
"ldodera@stanford.edu, fellowship@cvmed.stanford.edu",#N/A,
damorris@ucdavis.edu,#N/A,
tezamora@uci.edu,#N/A,
sutakahashi@mednet.ucla.edu,#N/A,
mrelaford@ucsd.edu,#N/A,
ramavizca@fresno.ucsf.edu,#N/A,
salinang@medicine.ucsf.edu,#N/A,
sarahlun@usc.edu,#N/A,
holly.ables@ucdenver.edu,#N/A,
carmen.carter@bpthosp.org,#N/A,
nicole.lozada@wcthn.org,#N/A,
laurie.poulin@hhchealth.org,#N/A,
barta@uchc.edu,#N/A,
joanna.whitehead@yale.edu,#N/A,
kwilliams@mfa.gwu.edu,#N/A,
gdorsey@huhosp.org,#N/A,
susan.g.imus@medstar.net,#N/A,
rekiya.wallace@hcahealthcare.com,#N/A,
tawanda.mattison@ascension.org,#N/A,
hernang1@ccf.org,#N/A,
lordim@health.fau.edu,#N/A,
jxs1921@med.miami.edu,#N/A,
messenger.brittany@mayo.edu,#N/A,
beatriz.carrazana@msmc.com,#N/A,
Janice.Campbell2@hcahealthcare.com,#N/A,
penny.bohannon@medicine.ufl.edu,#N/A,
karen.goodman@jax.ufl.edu,#N/A,
jxy185@miami.edu,#N/A,
tsumpter@health.usf.edu,#N/A,
bperker@emory.edu,#N/A,
tafoster@augusta.edu,#N/A,
mgarcia@msm.edu,#N/A,
kching@queens.org,#N/A,
cari-harland@uiowa.edu,#N/A,
paul.engelhardt@advocatehealth.com,#N/A,
sandy.kluk@franciscanalliance.org,#N/A,
ktreckler@lumc.edu,#N/A,
vsalaza1@nm.org,#N/A,
laverne.benson@sinai.org,#N/A,
KClaybourne@NorthShore.org,#N/A,
ringolia@uic.edu,#N/A,
lauren_l_fay@rush.edu,#N/A,
ldefend@siumed.edu,#N/A,
frampick@rush.edu,#N/A,
dhill4@bsd.uchicago.edu,#N/A,
karic@uic.edu,#N/A,
plummers@iu.edu,#N/A,
dcarey@thecaregroup.com,#N/A,
abryan@kumc.edu,#N/A,
jabarrick@chc.net,#N/A,
ashlee.rodenhauser@uky.edu,#N/A,
kjhous01@louisville.edu,#N/A,
jweber@lsuhsc.edu,#N/A,
lantee@lsuhsc.edu,#N/A,
shouse@ochsner.org,#N/A,
lora.fillion@baystatehealth.org,#N/A,
jdwhite@bidmc.harvard.edu,#N/A,
rebecca.hall@bmc.org,#N/A,
jbeckerdite@partners.org,#N/A,
donna.m.rizzo@lahey.org,#N/A,
khussey1@partners.org,#N/A,
diane.erraihani@caritaschristi.org,#N/A,
cscanlon1@tuftsmedicalcenter.org,#N/A,
raechel.strom@umassmemorial.org,#N/A,
rbassfo1@jhmi.edu,#N/A,
tnwebb@som.umaryland.edu,#N/A,
penny.r.sharps.civ@mail.mil,#N/A,
kinnek@mmc.org,#N/A,
maria.deregi@beaumont.org,#N/A,
Erica.Desimone@Beaumont.org,#N/A,
toni.haggerty@beaumont.org,#N/A,
tawanda.mattison@ascension.org,#N/A,
pstough@med.wayne.edu,#N/A,
gary1@hfhs.org,#N/A,
Lisa.Ndjipa@mclaren.org,#N/A,
jamie.shank@mclaren.org ,#N/A,
"hillary.vogel@ht.msu.edu
",#N/A,
Carly.Braxton@ascension.org ,#N/A,
kathleen.steiner@stjohn.org,#N/A,
kristen.edgerton@stjoeshealth.org,#N/A,
pengel@umich.edu,#N/A,
cheryl.christenson@hcmed.org,#N/A,
hofschulte.lisa2@mayo.edu,#N/A,
egoldsmi@umn.edu,#N/A,
Ava L Ysaguirre,#N/A,
dbizenbe@slu.edu,#N/A,
jwheeler@saint-lukes.org,#N/A,
Jryan@mrhc.org,#N/A,
mwatkins2@umc.edu,#N/A,
Murphyv15@ecu.edu,#N/A,
jan.l.willey@hitchcock.org,#N/A,
kira_oshima@med.unc.edu ,#N/A,
tdavis@wakehealth.edu,#N/A,
wendygreenwood@creighton.edu,#N/A,
trmayberry@unmc.edu,#N/A,
jan.l.willey@hitchcock.org,#N/A,
dalton-christine@cooperhealth.edu,#N/A,
Jacqueline.mainero@hackensackmeridian.org,#N/A,
tracy.schafer@atlantichealth.org,#N/A,
dcook@barnabashealth.org,#N/A,
dejesudi@njms.rutgers.edu,#N/A,
palmerdl@umdnj.edu,#N/A,
echevarriab@sjhmc.org,#N/A,
mrramirez@salud.unm.edu,#N/A,
katina.shehie@unlv.edu,#N/A,
brozowml@mail.amc.edu,#N/A,
gilliam3@buffalo.edu,#N/A,
aozcelik@lenoxhill.net,#N/A,
jranili@maimonidesmed.org,#N/A,
jacsmith@montefiore.org,#N/A,
nlloyd@montefiore.org ,#N/A,
darchelle.hinson-andre@mountsinai.org,#N/A,
dhinson-andre@chpnet.org,#N/A,
kate.eisenberg@mountsinai.org,#N/A,
kate.eisenberg@mountsinai.org,#N/A,
dcruz@bronxleb.org,#N/A,
tdoxsey@numc.edu,#N/A,
vae9010@nyp.org,#N/A,
Sue-ann.Gaida@nyumc.org ,#N/A,
lal9063@med.cornell.edu,#N/A,
"ma2066@columbia.edu, ",#N/A,
"Mee Fong Ng, BS",#N/A,
bponzo@lij.edu,#N/A,
imarmole@chpnet.org,#N/A,
patricia_callahan@siuh.edu,#N/A,
lorenza.swany@stonybrookmedicine.edu,#N/A,
velda.jones@downstate.edu,#N/A,
schirtzl@upstate.edu,#N/A,
michelle_snyder@urmc.rochester.edu,#N/A,
tracy.curtiss@wmchealth.org,#N/A,
amaloney@nyuwinthrop.org,#N/A,
tperez@aultman.com,#N/A,
adamskl@ccf.org,#N/A,
claire.rockwell@ohiohealth.com,#N/A,
ruth.arcenas@khnetwork.org,#N/A,
Kristin_Baldeschwiler@mercy.com,#N/A,
mwalshrodgers@metrohealth.org,#N/A,
Sakima.Smith@osumc.edu ,#N/A,
lingenfeltes@summahealth.org,#N/A,
joanna.benson@UHhospitals.org,#N/A,
meunieem@uc.edu,#N/A,
 lauren.clarke@utoledo.edu,#N/A,
jillian.lowe@wright.edu,#N/A,
kari.callahan@okstate.edu,#N/A,
candice-edwards@ouhsc.edu,#N/A,
dottin@ohsu.edu,#N/A,
cbowers3@wpahs.org,#N/A,
ell24@drexel.edu ,#N/A,
amriknic@einstein.edu,#N/A,
jlzarko@geisinger.edu,#N/A,
denise.dolan@guthrie.org,#N/A,
denice.susini@uphs.upenn.edu,#N/A,
wellsro@mlhs.org,#N/A,
gwen.rosenberger@lvhn.org,#N/A,
msmith@hmc.psu.edu,#N/A,
Karen.Iavarone@sluhn.org ,#N/A,
christina.pryer@tuhs.temple.edu,#N/A,
kim.berger@jefferson.edu,#N/A,
goppmanda@upmc.edu,#N/A,
bautistao@thewrightcenter.org,#N/A,
mortiz2@udhpr.org,#N/A,
Marisol.Jimenez-Rivera@med.va.gov,#N/A,
jfreer@lifespan.org,#N/A,
okurowsp@musc.edu,#N/A,
lorie.collins@uscmed.sc.edu,#N/A,
darla.fjerstad@sanfordhealth.org,#N/A,
Tammy.Elliott@erlanger.org,#N/A,
hillc@etsu.edu,#N/A,
bcolema4@uthsc.edu,#N/A,
ptrentha@utmck.edu,#N/A,
joann.j.jamrozik@vanderbilt.edu,#N/A,
claudetw@bcm.edu,#N/A,
staylor3@stlukeshealth.org,#N/A,
shawn.guy-pitts@baylorhealth.edu,#N/A,
karen.m.luera.civ@mail.mil,#N/A,
BNMoore@houstonmethodist.org,#N/A,
Kavina.Bhula@medicalcityhealth.com,#N/A,
mwheeler@swmail.sw.org,#N/A,
theresa.condez@ttuhsc.edu,#N/A,
irene.barriga@ttuhsc.edu,#N/A,
Monica.A.Garcia@uth.tmc.edu,#N/A,
bakerd0@uthscsa.edu,#N/A,
chvillar@utmb.edu,#N/A,
erica.santos@utsouthwestern.edu,#N/A,
melissa.grow@hsc.utah.edu,#N/A,
"mdmorris@carilionclinic.org,",#N/A,
Kristin.Liska@inova.org,#N/A,
ARS3G@VIRGINIA.EDU ,#N/A,
cylenthia.hundley@vcuhealth.org,#N/A,
roberta.frohock@uvmhealth.org,#N/A,
theresas@cardiology.washington.edu,#N/A,
jodie.ruffin@aurora.org,#N/A,
rkarst@mcw.edu,#N/A,
tlteske@medicine.wisc.edu,#N/A,
jessica.parker@camc.org,#N/A,
nfloyd@marshall.edu,#N/A,
ckomindo@hsc.wvu.edu,#N/A,