Subscriber Key,Email Address,First name,Last name,council name primary,Dynamic content should be,,,,,,,,,,,,,,,,,,,,,,,,,,,,,,,,,,,,,,,,,,,,,,,,,,,,,,,,,,,,,,,,,,,,,,,
ulrich.kintscher@charite.de,ulrich.kintscher@charite.de,ULRICH,KINTSCHER,ATVB,ATVB,,test email sent,,,,,,,,,,,,,,,,,,,,,,,,,,,,,,,,,,,,,,,,,,,,,,,,,,,,,,,,,,,,,,,,,,,,,
timerman@cardiol.br,timerman@cardiol.br,Sergio,Timerman,3CPRCOUNCIL,3CPR,,test email sent,,,,,,,,,,,,,,,,,,,,,,,,,,,,,,,,,,,,,,,,,,,,,,,,,,,,,,,,,,,,,,,,,Physician,HTML,timerman@cardiol.br,Active,4/16/18 13:48
TAGGART.NATHANIEL@MAYO.EDU,TAGGART.NATHANIEL@MAYO.EDU,NATHANIEL,TAGGART,CVDYCOUNCIL,CVDY,,test email sent,,,,,,,,,,,,,,,,,,,,,,,,,,,,,,,,,,,,,,,,,,,,,,,,,,,,,,,,,,,,,,,,,Physician,HTML,taggart.nathaniel@mayo.edu,Active,4/16/18 13:47
russell.moore@colorado.edu,russell.moore@colorado.edu,RUSSELL,MOORE,BCVSCOUNCIL,BCVS,,test email sent,,,,,,,,,,,,,,,,,,,,,,,,,,,,,,,,,,,,,,,,,,,,,,,,,,,,,,,,,,,,,,,,,,,,,
rvohora@yahoo.com,rvohora@yahoo.com,RISHI,VOHORA,CLCDCOUNCIL,CLCD,,test email sent,,,,,,,,,,,,,,,,,,,,,,,,,,,,,,,,,,,,,,,,,,,,,,,,,,,,,,,,,,,,,,,,,,,,,
rainevers@aol.com,rainevers@aol.com,LORRAINE,LEVERS,CVRICOUNCIL,CVRI,,test email sent,,,,,,,,,,,,,,,,,,,,,,,,,,,,,,,,,,,,,,,,,,,,,,,,,,,,,,,,,,,,,,,,,,,,,
mckhosla@gmail.com,mckhosla@gmail.com,Mahesh,Khosla,HTNCOUNCIL,HTN,DEFAULT BOTTOM,test email sent,,,,,,,,,,,,,,,,,,,,,,,,,,,,,,,,,,,,,,,,,,,,,,,,,,,,,,,,,,,,,,,,,,,,,
maustin@u.washington.edu,maustin@u.washington.edu,MELISSA,AUSTIN,EPICOUNCIL,EPI,,test email sent,,,,,,,,,,,,,,,,,,,,,,,,,,,,,,,,,,,,,,,,,,,,,,,,,,,,,,,,,,,,,,,,,,,,,
marc.charette@comcast.net,marc.charette@comcast.net,MARC,CHARETTE,FGTBCOUNCIL,GPM,,test email sent,,,,,,,,,,,,,,,,,,,,,,,,,,,,,,,,,,,,,,,,,,,,,,,,,,,,,,,,,,,,,,,,,,,,,
MALANG@LUMC.EDU,MALANG@LUMC.EDU,Mary,Lang,CVSNCOUNCIL,CVSN,,test email sent,underline updated,,,,,,,,,,,,,,,,,,,,,,,,,,,,,,,,,,,,,,,,,,,,,,,,,,,,,,,,,,,,,,,,,,,,
janand@med.miami.edu,janand@med.miami.edu,JATIN,ANAND,CVSA,CVSA,,cannot send (held status),,,,,,,,,,,,,,,,,,,,,,,,,,,,,,,,,,,,,,,,,,,,,,,,,,,,,,,,,,,,,,,,,,,,,
GAKAYSEN@UCDAVIS.EDU,GAKAYSEN@UCDAVIS.EDU,GEORGE,KAYSEN,KCVDCOUNCIL,KCVD,DEFAULT BOTTOM,test email sent,,,,,,,,,,,,,,,,,,,,,,,,,,,,,,,,,,,,,,,,,,,,,,,,,,,,,,,,,,,,,,,,,,,,,
BSHERFY@UMM.EDU,BSHERFY@UMM.EDU,BETH,SHERFY,QCORCOUNCIL,QCOR,DEFAULT BOTTOM,test email sent,,,,,,,,,,,,,,,,,,,,,,,,,,,,,,,,,,,,,,,,,,,,,,,,,,,,,,,,,,,,,,,,,,,,,
susan.kunish@heart.org,susan.kunish@heart.org,Susan,Kunish,PVDCOUNCIL,PVD,,test email sent,,,,,,,,,,,,,,,,,,,,,,,,,,,,,,,,,,,,,,,,,,,,,,,,,,,,,,,,,,,,,,,,,,,,,
ana.henriques@samc.com,ana.henriques@samc.com,Ana,Henriques,STRCOUNCIL,STROKE,,test email sent,,,,,,,,,,,,,,,,,,,,,,,,,,,,,,,,,,,,,,,,,,,,,,,,,,,,,,,,,,,,,,,,,,,,,
gustat@tulane.edu,gustat@tulane.edu,JEANETTE,GUSTAT,LCHCOUNCIL,LIFESTYLE,,test email sent,,,,,,,,,,,,,,,,,,,,,,,,,,,,,,,,,,,,,,,,,,,,,,,,,,,,,,,,,,,,,,,,,,,,,
,,,,,,,,,,,,,,,,,,,,,,,,,,,,,,,,,,,,,,,,,,,,,,,,,,,,,,,,,,,,,,,,,,,,,,,,,,,,
,,,,,,,,,,,,,,,,,,,,,,,,,,,,,,,,,,,,,,,,,,,,,,,,,,,,,,,,,,,,,,,,,,,,,,,,,,,,
,,,,,,,,,,,,,,,,,,,,,,,,,,,,,,,,,,,,,,,,,,,,,,,,,,,,,,,,,,,,,,,,,,,,,,,,,,,,
,,,,,,,,,,,,,,,,,,,,,,,,,,,,,,,,,,,,,,,,,,,,,,,,,,,,,,,,,,,,,,,,,,,,,,,,,,,,
,,,,,,,,,,,,,,,,,,,,,,,,,,,,,,,,,,,,,,,,,,,,,,,,,,,,,,,,,,,,,,,,,,,,,,,,,,,,
,,,,,,,,,,,,,,,,,,,,,,,,,,,,,,,,,,,,,,,,,,,,,,,,,,,,,,,,,,,,,,,,,,,,,,,,,,,,
,,,,,,,,,,,,,,,,,,,,,,,,,,,,,,,,,,,,,,,,,,,,,,,,,,,,,,,,,,,,,,,,,,,,,,,,,,,,
,,,,,,,,,,,,,,,,,,,,,,,,,,,,,,,,,,,,,,,,,,,,,,,,,,,,,,,,,,,,,,,,,,,,,,,,,,,,
,,,,,,,,,,,,,,,,,,,,,,,,,,,,,,,,,,,,,,,,,,,,,,,,,,,,,,,,,,,,,,,,,,,,,,,,,,,,
,,,,,,,,,,,,,,,,,,,,,,,,,,,,,,,,,,,,,,,,,,,,,,,,,,,,,,,,,,,,,,,,,,,,,,,,,,,,
,atvb,,,,,,,,,,,,,,,,,,,,,,,,,,,,,,,,,,,,,,,,,,,,,,,,,,,,,,,,,,,,,,,,,,,,,,,,,,,
,3cpr,,,,,,,,,,,,,,,,,,,,,,,,,,,,,,,,,,,,,,,,,,,,,,,,,,,,,,,,,,,,,,,,,,,,,,,,,,,
,kcvd,,,,,,,,,,,,,,,,,,,,,,,,,,,,,,,,,,,,,,,,,,,,,,,,,,,,,,,,,,,,,,,,,,,,,,,,,,,
,stroke,,,,,,,,,,,,,,,,,,,,,,,,,,,,,,,,,,,,,,,,,,,,,,,,,,,,,,,,,,,,,,,,,,,,,,,,,,,