<?xml version="1.0" encoding="UTF-8"?>
<session version="1.0">
<refactoring comment="Rename resource &apos;Tutorial_9&apos; to &apos;Tutorial_9_switch_statements&apos;" description="Rename resource &apos;Tutorial_9&apos;" flags="7" id="org.eclipse.ltk.core.refactoring.rename.resource" input="/Tutorial_9" name="Tutorial_9_switch_statements" stamp="1554758894538" updateReferences="true"/>
</session>