<?xml version="1.0" standalone="no"?>
<!DOCTYPE svg PUBLIC "-//W3C//DTD SVG 1.1//EN" "http://www.w3.org/Graphics/SVG/1.1/DTD/svg11.dtd" >
<svg xmlns="http://www.w3.org/2000/svg">
<metadata>Generated by IcoMoon</metadata>
<defs>
<font id="icomoon" horiz-adv-x="1024">
<font-face units-per-em="1024" ascent="960" descent="-64" />
<missing-glyph horiz-adv-x="1024" />
<glyph unicode="&#x20;" d="" horiz-adv-x="512" />
<glyph unicode="&#xe600;" d="M588.8 42.667h-167.822v391.111l-99.556 1.422v125.156h100.978l2.844 76.8c-1.422 106.667 36.978 173.511 170.667 173.511h106.667v-125.156l-62.578 1.422c-52.622 0-55.467-22.756-55.467-56.889v-71.111h126.578l-21.333-125.156h-100.978v-391.111z" />
<glyph unicode="&#xe601;" d="M799.289 810.667h-573.156c-54.044 0-96.711-42.667-96.711-95.289v-574.578c0-52.622 42.667-95.289 96.711-95.289h573.156c52.622 0 96.711 42.667 96.711 95.289v574.578c0 52.622-44.089 95.289-96.711 95.289zM669.867 428.089c0-86.756-71.111-156.444-157.867-156.444-85.333 0-156.444 69.689-156.444 156.444 0 25.6 7.111 49.778 17.067 71.111 25.6 49.778 79.644 83.911 139.378 83.911 61.156 0 113.778-34.133 139.378-83.911 12.8-21.333 18.489-45.511 18.489-71.111zM809.244 169.245c0-21.333-17.067-39.822-39.822-39.822h-510.578c-21.333 0-39.822 17.067-39.822 39.822v329.956h65.422c-7.111-22.756-11.378-46.933-11.378-71.111 0-130.844 106.667-237.511 238.933-237.511s238.933 106.667 238.933 237.511c0 25.6-4.267 49.778-11.378 71.111h68.267v-329.956zM809.244 622.934c0-21.333-17.067-39.822-39.822-39.822h-59.733c-21.333 0-39.822 17.067-39.822 39.822v65.422c0 17.067 11.378 31.289 27.022 36.978h72.533c21.333 0 39.822-17.067 39.822-39.822v-62.578z" />
<glyph unicode="&#xe602;" d="M812.089 554.667c0 130.844-110.933 253.156-277.333 253.156-209.067 0-314.311-150.756-314.311-275.911 0-75.378 28.444-143.644 89.6-169.244 9.956-4.267 18.489 0 21.333 11.378 1.422 7.111 7.111 27.022 8.533 35.556 2.844 11.378 1.422 15.644-5.689 24.178-17.067 21.333-28.444 48.356-28.444 86.756 0 112.356 82.489 211.911 216.178 211.911 118.044 0 182.044-72.533 182.044-169.244 0-128-55.467-234.667-139.378-234.667-45.511 0-79.644 38.4-69.689 85.333 12.8 55.467 38.4 116.622 38.4 156.444 0 35.556-19.911 66.844-59.733 66.844-46.933 0-85.333-48.356-85.333-113.778 0-41.244 14.222-69.689 14.222-69.689s-48.356-204.8-56.889-240.356c-17.067-71.111-2.844-159.289-1.422-167.822 0-5.689 7.111-7.111 9.956-2.844 4.267 5.689 59.733 75.378 79.644 145.067 5.689 19.911 31.289 120.889 31.289 120.889 15.644-29.867 59.733-55.467 106.667-55.467 143.644-1.422 240.356 128 240.356 301.511z" />
<glyph unicode="&#xe603;" d="M995.556 715.378c-34.133-15.644-72.533-25.6-110.933-29.867 39.822 24.178 71.111 61.156 85.333 106.667-36.978-22.756-78.222-38.4-122.311-46.933-35.556 36.978-85.333 61.156-140.8 61.156-108.089 0-194.844-86.756-194.844-193.422 0-15.644 1.422-29.867 5.689-44.089-160.711 8.533-302.933 85.333-398.222 201.956-17.067-28.444-25.6-61.156-25.6-96.711 0-66.844 34.133-126.578 85.333-160.711-31.289 1.422-61.156 9.956-88.178 24.178 0-1.422 0-1.422 0-2.844 0-93.867 66.844-172.089 155.022-189.156-15.644-4.267-32.711-7.111-51.2-7.111-12.8 0-24.178 1.422-36.978 2.844 24.178-76.8 95.289-132.267 180.622-133.689-65.422-51.2-147.911-82.489-238.933-82.489-15.644 0-31.289 1.422-45.511 2.844 85.333-55.467 187.733-86.756 295.822-86.756 355.556 0 550.4 294.4 550.4 550.4 0 8.533 0 17.067 0 25.6 36.978 25.6 69.689 59.733 95.289 98.133z" />
<glyph unicode="&#xe604;" d="M841.956 142.223c0-51.2-44.089-92.444-98.133-92.444-76.8-2.844-156.444-4.267-236.089-4.267-81.067 0-159.289 1.422-236.089 4.267-54.044 0-98.133 41.244-98.133 92.444-2.844 41.244-4.267 81.067-4.267 122.311s1.422 81.067 4.267 122.311c0 51.2 44.089 92.444 98.133 92.444 76.8 2.844 156.444 4.267 236.089 4.267 81.067 0 159.289-1.422 236.089-4.267 54.044 0 98.133-41.244 98.133-92.444 2.844-41.244 4.267-81.067 4.267-122.311 1.422-41.244 0-82.489-4.267-122.311zM364.089 413.867h-142.222v-41.244h48.356v-246.044h46.933v246.044h48.356v41.244zM480.711 338.489h-41.244v-160.711c-4.267-4.267-8.533-8.533-12.8-11.378s-8.533-4.267-11.378-4.267c-4.267 0-7.111 1.422-8.533 2.844-1.422 2.844-2.844 5.689-2.844 11.378v162.133h-41.244v-177.778c0-12.8 2.844-22.756 7.111-28.444s11.378-9.956 21.333-9.956c7.111 0 15.644 2.844 24.178 7.111s15.644 11.378 24.178 19.911v-22.756h41.244v211.911zM638.578 288.711c0 17.067-2.844 29.867-9.956 39.822-7.111 8.533-17.067 14.222-29.867 14.222-5.689 0-12.8-1.422-18.489-5.689-5.689-2.844-12.8-8.533-17.067-14.222v92.444h-41.244v-287.289h41.244v15.644c5.689-7.111 11.378-11.378 17.067-14.222s12.8-4.267 21.333-4.267c12.8 0 21.333 4.267 28.444 11.378 7.111 8.533 9.956 19.911 9.956 34.133v118.044zM790.756 201.956h-42.667v-14.222c0-12.8-1.422-19.911-4.267-24.178s-7.111-5.689-14.222-5.689c-7.111 0-11.378 2.844-14.222 7.111s-4.267 11.378-4.267 22.756v39.822h78.222v54.044c0 19.911-5.689 35.556-15.644 46.933s-24.178 15.644-42.667 15.644c-18.489 0-32.711-5.689-45.511-17.067-11.378-11.378-17.067-27.022-17.067-45.511v-95.289c0-19.911 5.689-36.978 15.644-48.356s25.6-17.067 44.089-17.067c19.911 0 35.556 5.689 45.511 17.067s15.644 27.022 15.644 49.778v14.222zM712.533 281.6c0 8.533 1.422 15.644 4.267 18.489 2.844 4.267 7.111 5.689 14.222 5.689 5.689 0 11.378-1.422 14.222-5.689s4.267-9.956 4.267-18.489v-21.333h-36.978v21.333zM581.689 157.867c-2.844 0-7.111 1.422-9.956 2.844s-5.689 4.267-9.956 7.111v130.844c2.844 2.844 5.689 5.689 8.533 7.111s5.689 1.422 8.533 1.422 9.956-1.422 12.8-5.689c2.844-4.267 4.267-8.533 4.267-15.644v-109.511c0-7.111-1.422-11.378-2.844-14.222-2.844-2.844-5.689-4.267-11.378-4.267zM676.978 543.289c-7.111-8.533-15.644-15.644-24.178-19.911s-15.644-7.111-24.178-7.111c-9.956 0-17.067 2.844-21.333 9.956-4.267 5.689-7.111 15.644-7.111 28.444v177.778h41.244v-163.556c0-5.689 1.422-8.533 2.844-11.378s4.267-2.844 8.533-2.844c2.844 0 7.111 1.422 11.378 4.267s8.533 7.111 12.8 11.378v162.133h41.244v-211.911h-41.244v22.756zM506.311 514.845c-18.489 0-32.711 5.689-42.667 15.644-11.378 11.378-15.644 25.6-15.644 42.667v109.511c0 17.067 5.689 29.867 17.067 39.822s25.6 14.222 44.089 14.222c17.067 0 31.289-5.689 41.244-15.644 11.378-9.956 15.644-24.178 15.644-39.822v-109.511c0-18.489-5.689-32.711-15.644-42.667s-25.6-14.222-44.089-14.222zM524.8 685.511c0 4.267-1.422 8.533-5.689 11.378-2.844 2.844-7.111 4.267-12.8 4.267s-8.533-1.422-12.8-4.267c-2.844-2.844-4.267-7.111-4.267-11.378v-116.622c0-5.689 1.422-9.956 4.267-14.222 2.844-2.844 7.111-4.267 12.8-4.267s9.956 1.422 12.8 4.267c2.844 2.844 4.267 7.111 4.267 12.8v118.044zM395.378 519.111h-46.933v113.778l-54.044 174.933h46.933l29.867-115.2h2.844l28.444 115.2h46.933l-54.044-167.822v-120.889z" />
<glyph unicode="&#xe605;" d="M0 960v-1024h1024v1024h-1024zM960 0h-896v896h896v-896zM768 736l-320-320-192 192-128-128 320-320 448 448-128 128z" />
<glyph unicode="&#xe606;" d="M0 960v-1024h1024v1024h-1024zM960 0h-896v896h896v-896z" />
<glyph unicode="&#xe607;" d="M128 448.008c0-148.026 88.322-275.968 216.43-336.578l-183.178 488.784c-21.308-46.508-33.252-97.982-33.252-152.206zM771.228 466.872c0 46.234-17.054 78.236-31.654 103.142-19.458 30.82-37.72 56.894-37.72 87.716 0 34.374 26.766 66.376 64.486 66.376 1.704 0 3.32-0.204 4.976-0.302-68.316 60.97-159.34 98.196-259.308 98.196-134.16 0-252.186-67.046-320.844-168.568 9.010-0.282 17.506-0.454 24.712-0.454 40.154 0 102.34 4.752 102.34 4.752 20.69 1.182 23.132-28.434 2.458-30.822 0 0-20.81-2.368-43.952-3.55l139.834-405.106 84.044 245.456-59.822 159.65c-20.688 1.184-40.278 3.55-40.278 3.55-20.702 1.192-18.272 32.002 2.438 30.822 0 0 63.4-4.752 101.134-4.752 40.146 0 102.35 4.752 102.35 4.752 20.702 1.182 23.14-28.434 2.446-30.822 0 0-20.834-2.372-43.948-3.55l138.78-402.018 38.312 124.632c16.58 51.75 29.216 88.9 29.216 120.9zM518.742 415.296l-115.226-326.058c34.416-9.858 70.794-15.238 108.488-15.238 44.716 0 87.604 7.518 127.518 21.2-1.018 1.602-1.974 3.304-2.75 5.154l-118.030 314.942zM848.962 627.428c1.652-11.91 2.588-24.686 2.588-38.458 0-37.93-7.292-80.596-29.202-133.95l-117.286-330.272c114.162 64.828 190.938 185.288 190.938 323.258 0 65.030-17.060 126.16-47.038 179.422zM512 960c-282.77 0-512-229.23-512-512s229.23-512 512-512 512 229.23 512 512-229.23 512-512 512zM512 0c-247.424 0-448 200.576-448 448s200.576 448 448 448 448-200.576 448-448-200.576-448-448-448z" />
<glyph unicode="&#xe608;" d="M132.198 686.029c-13.875 13.722-36.301 13.722-50.125 0-13.824-13.67-13.824-35.891 0-49.613l404.89-400.896c13.875-13.722 36.25-13.722 50.125 0l404.89 400.896c13.824 13.722 13.875 35.891 0 49.613s-36.352 13.722-50.125 0.051l-379.853-365.619-379.802 365.568z" />
<glyph unicode="&#xe609;" d="M891.802 235.571c13.875-13.722 36.301-13.722 50.125 0 13.875 13.722 13.875 35.891 0 49.613l-404.89 400.896c-13.824 13.722-36.25 13.722-50.074 0l-404.89-400.896c-13.824-13.722-13.875-35.891 0-49.613s36.25-13.722 50.125 0l379.802 365.619 379.802-365.619z" />
</font></defs></svg>